%YAML 1.1
%TAG !u! tag:unity3d.com,2011:
--- !u!114 &11400000
MonoBehaviour:
  m_ObjectHideFlags: 0
  m_CorrespondingSourceObject: {fileID: 0}
  m_PrefabInstance: {fileID: 0}
  m_PrefabAsset: {fileID: 0}
  m_GameObject: {fileID: 0}
  m_Enabled: 1
  m_EditorHideFlags: 0
  m_Script: {fileID: 11500000, guid: 721ae39d28af4de993c8297a54117306, type: 3}
  m_Name: TestHouseBattery01
  m_EditorClassIdentifier: 
  houseBattery:
    name: House battery 01
    description: battery
    storageSize: 1000
