%YAML 1.1
%TAG !u! tag:unity3d.com,2011:
--- !u!114 &11400000
MonoBehaviour:
  m_ObjectHideFlags: 0
  m_CorrespondingSourceObject: {fileID: 0}
  m_PrefabInstance: {fileID: 0}
  m_PrefabAsset: {fileID: 0}
  m_GameObject: {fileID: 0}
  m_Enabled: 1
  m_EditorHideFlags: 0
  m_Script: {fileID: 11500000, guid: 68adcd7994664f8c90305fa2bc52347a, type: 3}
  m_Name: TestPropulsion01
  m_EditorClassIdentifier: 
  propulsion:
    moduleType: 4
    description: propulsion
    name: Test propulsion 01
    thrust: 10
    stealth: 10
    consumption: 10
