%YAML 1.1
%TAG !u! tag:unity3d.com,2011:
--- !u!114 &11400000
MonoBehaviour:
  m_ObjectHideFlags: 0
  m_CorrespondingSourceObject: {fileID: 0}
  m_PrefabInstance: {fileID: 0}
  m_PrefabAsset: {fileID: 0}
  m_GameObject: {fileID: 0}
  m_Enabled: 1
  m_EditorHideFlags: 0
  m_Script: {fileID: 11500000, guid: 2e85e949d54743858b1e0c540991ab4c, type: 3}
  m_Name: DefaultArmor
  m_EditorClassIdentifier: 
  armor:
    moduleType: 6
    description: Description
    name: Default armor
    weight: 0.5
    hardness: 5
    stealth: 1
    hitPoints: 100
