%YAML 1.1
%TAG !u! tag:unity3d.com,2011:
--- !u!114 &11400000
MonoBehaviour:
  m_ObjectHideFlags: 0
  m_CorrespondingSourceObject: {fileID: 0}
  m_PrefabInstance: {fileID: 0}
  m_PrefabAsset: {fileID: 0}
  m_GameObject: {fileID: 0}
  m_Enabled: 1
  m_EditorHideFlags: 0
  m_Script: {fileID: 11500000, guid: 479e36dfd4174d64a04089d7b9e0b864, type: 3}
  m_Name: Basic - 001
  m_EditorClassIdentifier: 
  frame:
    frameModel: 
    description: 
    name: Basic - 001
    weaponSlotsAmount: 1
    batterySlotsAmount: 1
    sensorSlotsAmount: 1
    propulsionSlotsAmount: 1
    cpuSlotsAmount: 1
    armorSlotsAmount: 1
    storageUnitSlotsAmount: 1
    hardness: 10
    weight: 1
    stealth: 15
    hitPoints: 15
    aerodynamics: 0.2
    crossSectionArea: 0.04
