%YAML 1.1
%TAG !u! tag:unity3d.com,2011:
--- !u!114 &11400000
MonoBehaviour:
  m_ObjectHideFlags: 0
  m_CorrespondingSourceObject: {fileID: 0}
  m_PrefabInstance: {fileID: 0}
  m_PrefabAsset: {fileID: 0}
  m_GameObject: {fileID: 0}
  m_Enabled: 1
  m_EditorHideFlags: 0
  m_Script: {fileID: 11500000, guid: 479e36dfd4174d64a04089d7b9e0b864, type: 3}
  m_Name: KS-002
  m_EditorClassIdentifier: 
  frame:
    frameModel: 
    description: 
    name: KS-002
    weaponSlotsAmount: 2
    batterySlotsAmount: 2
    sensorSlotsAmount: 2
    propulsionSlotsAmount: 2
    cpuSlotsAmount: 2
    armorSlotsAmount: 2
    storageUnitSlotsAmount: 2
    hardness: 1
    weight: 1.5
    stealth: 1
    hitPoints: 10
    aerodynamics: 0.01
    crossSectionArea: 0.02
