%YAML 1.1
%TAG !u! tag:unity3d.com,2011:
--- !u!114 &11400000
MonoBehaviour:
  m_ObjectHideFlags: 0
  m_CorrespondingSourceObject: {fileID: 0}
  m_PrefabInstance: {fileID: 0}
  m_PrefabAsset: {fileID: 0}
  m_GameObject: {fileID: 0}
  m_Enabled: 1
  m_EditorHideFlags: 0
  m_Script: {fileID: 11500000, guid: 7c424c39b16f418589dd640a2edb8c1d, type: 3}
  m_Name: MissionsConfiguration
  m_EditorClassIdentifier: 
  secondsOnLootMission: 10
  secondsOnScoutMission: 12
  secondsOnBattleMission: 15
